Blinded Sample Medidata — lst_blind_medidata • ironer
…
new_pq
PQ version 3

new_pq_v4
PQ version 4

new_pq_v5
PQ version 5

    Examples

head(lst_blind_medidata)
#> $ic
#> # A tibble: 99 × 2
#>    subject cnstdate_int
#>      <int> <date>      
#>  1      66 2018-04-01  
#>  2      23 2017-09-03  
#>  3      82 2017-12-02  
#>  4       5 2018-07-13  
#>  5      48 2018-08-25  
#>  6      43 2018-09-10  
#>  7      26 2019-01-26  
#>  8      52 2019-06-27  
#>  9      36 2019-07-21  
#> 10      87 2019-11-17  
#> # ℹ 89 more rows
#> 
#> $ca_cm_derived
#> # A tibble: 359 × 5
#>    subject trt_treatment_recode trt_treatment_category exstdat_int exendat_int
#>      <int> <chr>                <chr>                  <date>      <date>     
#>  1      77 Abiraterone Acetate  AR Signaling Inhibitor 2018-05-22  2019-09-21 
#>  2      77 Docetaxel            Chemotherapy           2019-12-07  2020-07-04 
#>  3      77 Radium-223           Radiopharmaceuticals   2019-10-19  2019-11-16 
#>  4      77 Olaparib             PARP                   2020-10-04  NA         
#>  5      77 Bicalutamide         ADT                    2017-05-29  2017-12-22 
#>  6      53 Degarelix            ADT                    2014-06-28  2014-07-24 
#>  7      53 Leuprolide           ADT                    2014-08-21  2015-05-28 
#>  8      53 Bicalutamide         ADT                    2017-10-29  2018-08-12 
#>  9      53 Abiraterone Acetate  AR Signaling Inhibitor 2018-10-11  NA         
#> 10      53 Prednisone           Steroid                2018-10-11  NA         
#> # ℹ 349 more rows
#> 
#> $cyc_date
#> # A tibble: 882 × 3
#>    subject instance_name   visit_date
#>      <int> <chr>           <date>    
#>  1      97 Baseline 0      2017-06-02
#>  2      97 Month 3         2017-09-08
#>  3      97 Month 6         2017-12-15
#>  4      97 Month 9         2018-03-23
#>  5      97 Month 12        2018-06-22
#>  6      97 Month 15        2018-09-21
#>  7      97 End of Study 99 2018-10-19
#>  8      23 Baseline 0      2017-09-03
#>  9      23 Month 3         2017-11-26
#> 10      23 Month 6         2018-02-18
#> # ℹ 872 more rows
…
#> 13      15 Baseline 0           1        0        0        0        0        0
#> 14      60 Baseline 0           1        0        0        0        0        0
#> 15      34 Month 6              1        0        0        1        0        0
#> 16      34 Baseline 0           1        0        0        0        0        0
#> 17      71 Baseline 0           1        0        0        0        0        0
#> 18      72 Baseline 0           1        0        0        0        0        0
#> # ℹ 21 more variables: newpq_4g <dbl>, newpq_4h <dbl>, newpq_4i <dbl>,
#> #   newpq_4iab <chr>, newpq_5a <dbl>, newpq_5a_raw <chr>, newpq_5b <dbl>,
#> #   newpq_5b_raw <chr>, newpq_5c <dbl>, newpq_5c_raw <chr>, newpq_5d <dbl>,
#> #   newpq_5d_raw <chr>, newpq_5e <dbl>, newpq_5e_raw <chr>, newpq_5f <dbl>,
#> #   newpq_5f_raw <chr>, newpq_5g <dbl>, newpq_5g_raw <chr>, newpq_5h <dbl>,
#> #   newpq_5h_raw <chr>, newpq_5ia <chr>
#> 
#> $new_pq_v4
#> # A tibble: 54 × 26
#>    subject instance_name newpq14a_v4 newpq14a_v4_std newpq14b_v4 newpq14b_v4_std
#>      <int> <chr>         <chr>                 <dbl> <chr>                 <dbl>
#>  1      77 Month 30      So far                    1 So far                    1
#>  2      85 Baseline 0    NA                       NA So far                    1
#>  3      83 Baseline 0    NA                       NA So far                    1
#>  4      57 Baseline 0    Starting n…               2 NA                       NA
#>  5      57 Month 3       So far                    1 So far                    1
#>  6      66 Month 12      NA                       NA NA                       NA
#>  7      66 Month 15      Starting n…               2 NA                       NA
#>  8      66 Month 9       NA                       NA NA                       NA
#>  9      28 Baseline 0    Starting n…               2 So far                    1
#> 10      78 Baseline 0    NA                       NA NA                       NA
#> # ℹ 44 more rows
#> # ℹ 20 more variables: newpq14c_v4 <chr>, newpq14c_v4_std <dbl>,
#> #   newpq14d_v4 <chr>, newpq14d_v4_std <dbl>, newpq14e_v4 <chr>,
#> #   newpq14e_v4_std <dbl>, newpq14f_v4 <chr>, newpq14f_v4_std <dbl>,
#> #   newpq14g_v4 <chr>, newpq14g_v4_std <dbl>, newpq14h_v4 <chr>,
#> #   newpq14h_v4_std <dbl>, newpq14i_v4 <chr>, newpq14i_v4_std <dbl>,
#> #   newpq14k_v4 <chr>, newpq14k_v4_std <dbl>, newpq14l_v4 <chr>, …
…
